{
"instructions_readme": "1) Open Chrome, 2) go to chrome://tracing, 3) click Load, 4) navigate to this file.",

"traceEvents":[
{ "pid": 1, "tid": 1, "ph": "M", "name": "thread_name", "args": { "name": "" } },
{ "pid": 1, "tid": 1, "ts": 3.00000002607703, "dur": 15614133.7890625, "ph": "X", "name": "il2cpp.exe", "args": { "durationMS": 15614.1337890625, "detail": "" } },
{ "pid": 1, "tid": 1, "ts": 221819.99206543, "dur": 15389118.1640625, "ph": "X", "name": "ConvertAssemblies", "args": { "durationMS": 15389.1181640625, "detail": "" } },
{ "pid": 1, "tid": 1, "ts": 268399.993896484, "dur": 118137.001037598, "ph": "X", "name": "Collect assemblies to convert", "args": { "durationMS": 118.137001037598, "detail": "" } },
{ "pid": 1, "tid": 1, "ts": 386739.990234375, "dur": 129356.002807617, "ph": "X", "name": "RegisterCorlib", "args": { "durationMS": 129.356002807617, "detail": "" } },
{ "pid": 1, "tid": 1, "ts": 516846.984863281, "dur": 111361.000061035, "ph": "X", "name": "PreProcessIL", "args": { "durationMS": 111.361000061035, "detail": "" } },
{ "pid": 1, "tid": 1, "ts": 516848.022460938, "dur": 27771.9993591309, "ph": "X", "name": "Inject base types and finalizers into COM and Windows Runtime types", "args": { "durationMS": 27.7719993591309, "detail": "" } },
{ "pid": 1, "tid": 1, "ts": 517598.999023438, "dur": 18336.9998931885, "ph": "X", "name": "ModifyCOMAndWindowsRuntimeTypes in assembly", "args": { "durationMS": 18.3369998931885, "detail": "mscorlib" } },
{ "pid": 1, "tid": 1, "ts": 535937.98828125, "dur": 3152.99987792969, "ph": "X", "name": "ModifyCOMAndWindowsRuntimeTypes in assembly", "args": { "durationMS": 3.15299987792969, "detail": "System.Xml" } },
{ "pid": 1, "tid": 1, "ts": 539092.956542969, "dur": 428.000003099442, "ph": "X", "name": "ModifyCOMAndWindowsRuntimeTypes in assembly", "args": { "durationMS": 0.428000003099442, "detail": "System" } },
{ "pid": 1, "tid": 1, "ts": 540134.948730469, "dur": 1955.9999704361, "ph": "X", "name": "ModifyCOMAndWindowsRuntimeTypes in assembly", "args": { "durationMS": 1.9559999704361, "detail": "UnityEngine.CoreModule" } },
{ "pid": 1, "tid": 1, "ts": 542518.981933594, "dur": 1873.99995326996, "ph": "X", "name": "ModifyCOMAndWindowsRuntimeTypes in assembly", "args": { "durationMS": 1.87399995326996, "detail": "Unity.ugui" } },
{ "pid": 1, "tid": 1, "ts": 544619.995117188, "dur": 83586.9979858398, "ph": "X", "name": "ApplyDefaultMarshalAsAttribute", "args": { "durationMS": 83.5869979858398, "detail": "" } },
{ "pid": 1, "tid": 1, "ts": 545249.0234375, "dur": 53601.001739502, "ph": "X", "name": "ApplyDefaultMarshalAsAttributeVisitor in assembly", "args": { "durationMS": 53.601001739502, "detail": "mscorlib" } },
{ "pid": 1, "tid": 1, "ts": 598874.0234375, "dur": 5799.00026321411, "ph": "X", "name": "ApplyDefaultMarshalAsAttributeVisitor in assembly", "args": { "durationMS": 5.79900026321411, "detail": "System" } },
{ "pid": 1, "tid": 1, "ts": 605026.977539062, "dur": 17951.000213623, "ph": "X", "name": "ApplyDefaultMarshalAsAttributeVisitor in assembly", "args": { "durationMS": 17.951000213623, "detail": "UnityEngine.CoreModule" } },
{ "pid": 1, "tid": 1, "ts": 623322.998046875, "dur": 361.999988555908, "ph": "X", "name": "ApplyDefaultMarshalAsAttributeVisitor in assembly", "args": { "durationMS": 0.361999988555908, "detail": "UnityEngine.IMGUIModule" } },
{ "pid": 1, "tid": 1, "ts": 624073.059082031, "dur": 2841.99976921082, "ph": "X", "name": "ApplyDefaultMarshalAsAttributeVisitor in assembly", "args": { "durationMS": 2.84199976921082, "detail": "Unity.ugui" } },
{ "pid": 1, "tid": 1, "ts": 627086.975097656, "dur": 349.000006914139, "ph": "X", "name": "ApplyDefaultMarshalAsAttributeVisitor in assembly", "args": { "durationMS": 0.349000006914139, "detail": "UnityEngine.GameCenterModule" } },
{ "pid": 1, "tid": 1, "ts": 627541.015625, "dur": 657.999992370605, "ph": "X", "name": "ApplyDefaultMarshalAsAttributeVisitor in assembly", "args": { "durationMS": 0.657999992370605, "detail": "Assembly-CSharp" } },
{ "pid": 1, "tid": 1, "ts": 628588.012695312, "dur": 11164.999961853, "ph": "X", "name": "WriteResources", "args": { "durationMS": 11.164999961853, "detail": "" } },
{ "pid": 1, "tid": 1, "ts": 640111.999511719, "dur": 46001.9989013672, "ph": "X", "name": "CopyEtcFolder", "args": { "durationMS": 46.0019989013672, "detail": "" } },
{ "pid": 1, "tid": 1, "ts": 686914.001464844, "dur": 400231.018066406, "ph": "X", "name": "PreProcessStage", "args": { "durationMS": 400.231018066406, "detail": "" } },
{ "pid": 1, "tid": 1, "ts": 1087156.00585938, "dur": 3200.99997520447, "ph": "X", "name": "Debugger Sequence Points", "args": { "durationMS": 3.20099997520447, "detail": "" } },
{ "pid": 1, "tid": 1, "ts": 1091830.078125, "dur": 1808968.99414062, "ph": "X", "name": "Generics Collection", "args": { "durationMS": 1808.96899414062, "detail": "" } },
{ "pid": 1, "tid": 1, "ts": 1091831.0546875, "dur": 1793368.04199219, "ph": "X", "name": "GenericsCollector.Collect", "args": { "durationMS": 1793.36804199219, "detail": "" } },
{ "pid": 1, "tid": 1, "ts": 2885199.95117188, "dur": 12255.9995651245, "ph": "X", "name": "CollectGenericVirtualMethods.Collect", "args": { "durationMS": 12.2559995651245, "detail": "" } },
{ "pid": 1, "tid": 1, "ts": 2897457.03125, "dur": 2684.00001525879, "ph": "X", "name": "AddExtraTypes", "args": { "durationMS": 2.68400001525879, "detail": "" } },
{ "pid": 1, "tid": 1, "ts": 2900800.04882812, "dur": 2225.99983215332, "ph": "X", "name": "Add Windows Runtime type names", "args": { "durationMS": 2.22599983215332, "detail": "" } },
{ "pid": 1, "tid": 1, "ts": 2900800.04882812, "dur": 2224.99990463257, "ph": "X", "name": "Add Windows Runtime type names", "args": { "durationMS": 2.22499990463257, "detail": "" } },
{ "pid": 1, "tid": 1, "ts": 2920901.85546875, "dur": 7633330.078125, "ph": "X", "name": "AllAssemblyConversion", "args": { "durationMS": 7633.330078125, "detail": "" } },
{ "pid": 1, "tid": 1, "ts": 2931578.85742188, "dur": 4771694.82421875, "ph": "X", "name": "Convert", "args": { "durationMS": 4771.69482421875, "detail": "mscorlib" } },
{ "pid": 1, "tid": 1, "ts": 2931582.03125, "dur": 4771690.91796875, "ph": "X", "name": "Code", "args": { "durationMS": 4771.69091796875, "detail": "" } },
{ "pid": 1, "tid": 1, "ts": 2932697.265625, "dur": 4770574.70703125, "ph": "X", "name": "Methods", "args": { "durationMS": 4770.57470703125, "detail": "Definitions" } },
{ "pid": 1, "tid": 1, "ts": 7710089.35546875, "dur": 1848.99997711182, "ph": "X", "name": "Convert", "args": { "durationMS": 1.84899997711182, "detail": "System.Xml" } },
{ "pid": 1, "tid": 1, "ts": 7710090.8203125, "dur": 1847.00012207031, "ph": "X", "name": "Code", "args": { "durationMS": 1.84700012207031, "detail": "" } },
{ "pid": 1, "tid": 1, "ts": 7710113.76953125, "dur": 1822.00002670288, "ph": "X", "name": "Methods", "args": { "durationMS": 1.82200002670288, "detail": "Definitions" } },
{ "pid": 1, "tid": 1, "ts": 7718244.140625, "dur": 605518.981933594, "ph": "X", "name": "Convert", "args": { "durationMS": 605.518981933594, "detail": "System" } },
{ "pid": 1, "tid": 1, "ts": 7718246.09375, "dur": 605515.991210938, "ph": "X", "name": "Code", "args": { "durationMS": 605.515991210938, "detail": "" } },
{ "pid": 1, "tid": 1, "ts": 7718338.8671875, "dur": 605422.973632812, "ph": "X", "name": "Methods", "args": { "durationMS": 605.422973632812, "detail": "Definitions" } },
{ "pid": 1, "tid": 1, "ts": 8331310.546875, "dur": 7036.00025177002, "ph": "X", "name": "Convert", "args": { "durationMS": 7.03600025177002, "detail": "System.Configuration" } },
{ "pid": 1, "tid": 1, "ts": 8331312.5, "dur": 7032.99999237061, "ph": "X", "name": "Code", "args": { "durationMS": 7.03299999237061, "detail": "" } },
{ "pid": 1, "tid": 1, "ts": 8331327.1484375, "dur": 7016.9997215271, "ph": "X", "name": "Methods", "args": { "durationMS": 7.0169997215271, "detail": "Definitions" } },
{ "pid": 1, "tid": 1, "ts": 8344269.53125, "dur": 14010.0002288818, "ph": "X", "name": "Convert", "args": { "durationMS": 14.0100002288818, "detail": "Mono.Security" } },
{ "pid": 1, "tid": 1, "ts": 8344272.4609375, "dur": 14008.0003738403, "ph": "X", "name": "Code", "args": { "durationMS": 14.0080003738403, "detail": "" } },
{ "pid": 1, "tid": 1, "ts": 8344288.0859375, "dur": 13991.0001754761, "ph": "X", "name": "Methods", "args": { "durationMS": 13.9910001754761, "detail": "Definitions" } },
{ "pid": 1, "tid": 1, "ts": 8364536.1328125, "dur": 1646.00002765656, "ph": "X", "name": "Convert", "args": { "durationMS": 1.64600002765656, "detail": "System.Core" } },
{ "pid": 1, "tid": 1, "ts": 8364539.0625, "dur": 1643.00000667572, "ph": "X", "name": "Code", "args": { "durationMS": 1.64300000667572, "detail": "" } },
{ "pid": 1, "tid": 1, "ts": 8364555.6640625, "dur": 1611.99998855591, "ph": "X", "name": "Methods", "args": { "durationMS": 1.61199998855591, "detail": "Definitions" } },
{ "pid": 1, "tid": 1, "ts": 8374042.96875, "dur": 18802.0000457764, "ph": "X", "name": "Convert", "args": { "durationMS": 18.8020000457764, "detail": "UnityEngine.SharedInternalsModule" } },
{ "pid": 1, "tid": 1, "ts": 8374046.875, "dur": 18798.999786377, "ph": "X", "name": "Code", "args": { "durationMS": 18.798999786377, "detail": "" } },
{ "pid": 1, "tid": 1, "ts": 8374070.3125, "dur": 18773.0007171631, "ph": "X", "name": "Methods", "args": { "durationMS": 18.7730007171631, "detail": "Definitions" } },
{ "pid": 1, "tid": 1, "ts": 8399840.8203125, "dur": 452453.002929688, "ph": "X", "name": "Convert", "args": { "durationMS": 452.453002929688, "detail": "UnityEngine.CoreModule" } },
{ "pid": 1, "tid": 1, "ts": 8399843.75, "dur": 452448.974609375, "ph": "X", "name": "Code", "args": { "durationMS": 452.448974609375, "detail": "" } },
{ "pid": 1, "tid": 1, "ts": 8402945.3125, "dur": 449348.022460938, "ph": "X", "name": "Methods", "args": { "durationMS": 449.348022460938, "detail": "Definitions" } },
{ "pid": 1, "tid": 1, "ts": 8858780.2734375, "dur": 722.99998998642, "ph": "X", "name": "Convert", "args": { "durationMS": 0.72299998998642, "detail": "System.Diagnostics.StackTrace" } },
{ "pid": 1, "tid": 1, "ts": 8858783.203125, "dur": 720.000028610229, "ph": "X", "name": "Code", "args": { "durationMS": 0.720000028610229, "detail": "" } },
{ "pid": 1, "tid": 1, "ts": 8858794.921875, "dur": 707.000017166138, "ph": "X", "name": "Methods", "args": { "durationMS": 0.707000017166138, "detail": "Definitions" } },
{ "pid": 1, "tid": 1, "ts": 8867235.3515625, "dur": 554.000020027161, "ph": "X", "name": "Convert", "args": { "durationMS": 0.554000020027161, "detail": "System.Globalization.Extensions" } },
{ "pid": 1, "tid": 1, "ts": 8867238.28125, "dur": 551.999986171722, "ph": "X", "name": "Code", "args": { "durationMS": 0.551999986171722, "detail": "" } },
{ "pid": 1, "tid": 1, "ts": 8867248.046875, "dur": 541.000008583069, "ph": "X", "name": "Methods", "args": { "durationMS": 0.541000008583069, "detail": "Definitions" } },
{ "pid": 1, "tid": 1, "ts": 8873602.5390625, "dur": 20369.9989318848, "ph": "X", "name": "Convert", "args": { "durationMS": 20.3699989318848, "detail": "UnityEngine.TextRenderingModule" } },
{ "pid": 1, "tid": 1, "ts": 8873604.4921875, "dur": 20367.9981231689, "ph": "X", "name": "Code", "args": { "durationMS": 20.3679981231689, "detail": "" } },
{ "pid": 1, "tid": 1, "ts": 8873623.046875, "dur": 20348.9990234375, "ph": "X", "name": "Methods", "args": { "durationMS": 20.3489990234375, "detail": "Definitions" } },
{ "pid": 1, "tid": 1, "ts": 8900216.796875, "dur": 25204.0004730225, "ph": "X", "name": "Convert", "args": { "durationMS": 25.2040004730225, "detail": "UnityEngine.AnimationModule" } },
{ "pid": 1, "tid": 1, "ts": 8900219.7265625, "dur": 25201.000213623, "ph": "X", "name": "Code", "args": { "durationMS": 25.201000213623, "detail": "" } },
{ "pid": 1, "tid": 1, "ts": 8900243.1640625, "dur": 25177.99949646, "ph": "X", "name": "Methods", "args": { "durationMS": 25.17799949646, "detail": "Definitions" } },
{ "pid": 1, "tid": 1, "ts": 8933552.734375, "dur": 101931.999206543, "ph": "X", "name": "Convert", "args": { "durationMS": 101.931999206543, "detail": "UnityEngine.IMGUIModule" } },
{ "pid": 1, "tid": 1, "ts": 8933560.546875, "dur": 101925.003051758, "ph": "X", "name": "Code", "args": { "durationMS": 101.925003051758, "detail": "" } },
{ "pid": 1, "tid": 1, "ts": 8933600.5859375, "dur": 101884.002685547, "ph": "X", "name": "Methods", "args": { "durationMS": 101.884002685547, "detail": "Definitions" } },
{ "pid": 1, "tid": 1, "ts": 9040333.984375, "dur": 19424.9992370605, "ph": "X", "name": "Convert", "args": { "durationMS": 19.4249992370605, "detail": "UnityEngine.InputLegacyModule" } },
{ "pid": 1, "tid": 1, "ts": 9040336.9140625, "dur": 19420.9995269775, "ph": "X", "name": "Code", "args": { "durationMS": 19.4209995269775, "detail": "" } },
{ "pid": 1, "tid": 1, "ts": 9040350.5859375, "dur": 19407.9990386963, "ph": "X", "name": "Methods", "args": { "durationMS": 19.4079990386963, "detail": "Definitions" } },
{ "pid": 1, "tid": 1, "ts": 9068759.765625, "dur": 3172.9998588562, "ph": "X", "name": "Convert", "args": { "durationMS": 3.1729998588562, "detail": "UnityEngine.Physics2DModule" } },
{ "pid": 1, "tid": 1, "ts": 9068762.6953125, "dur": 3168.99991035461, "ph": "X", "name": "Code", "args": { "durationMS": 3.16899991035461, "detail": "" } },
{ "pid": 1, "tid": 1, "ts": 9068773.4375, "dur": 3156.99982643127, "ph": "X", "name": "Methods", "args": { "durationMS": 3.15699982643127, "detail": "Definitions" } },
{ "pid": 1, "tid": 1, "ts": 9079984.375, "dur": 20369.0013885498, "ph": "X", "name": "Convert", "args": { "durationMS": 20.3690013885498, "detail": "UnityEngine.PhysicsModule" } },
{ "pid": 1, "tid": 1, "ts": 9079986.328125, "dur": 20366.9986724854, "ph": "X", "name": "Code", "args": { "durationMS": 20.3669986724854, "detail": "" } },
{ "pid": 1, "tid": 1, "ts": 9080002.9296875, "dur": 20348.9990234375, "ph": "X", "name": "Methods", "args": { "durationMS": 20.3489990234375, "detail": "Definitions" } },
{ "pid": 1, "tid": 1, "ts": 9106541.015625, "dur": 26430.9997558594, "ph": "X", "name": "Convert", "args": { "durationMS": 26.4309997558594, "detail": "UnityEngine.UIModule" } },
{ "pid": 1, "tid": 1, "ts": 9106543.9453125, "dur": 26427.99949646, "ph": "X", "name": "Code", "args": { "durationMS": 26.42799949646, "detail": "" } },
{ "pid": 1, "tid": 1, "ts": 9106565.4296875, "dur": 26406.0001373291, "ph": "X", "name": "Methods", "args": { "durationMS": 26.4060001373291, "detail": "Definitions" } },
{ "pid": 1, "tid": 1, "ts": 9138415.0390625, "dur": 639.999985694885, "ph": "X", "name": "Convert", "args": { "durationMS": 0.639999985694885, "detail": "netstandard" } },
{ "pid": 1, "tid": 1, "ts": 9138416.9921875, "dur": 638.000011444092, "ph": "X", "name": "Code", "args": { "durationMS": 0.638000011444092, "detail": "" } },
{ "pid": 1, "tid": 1, "ts": 9138427.734375, "dur": 628.000020980835, "ph": "X", "name": "Methods", "args": { "durationMS": 0.628000020980835, "detail": "Definitions" } },
{ "pid": 1, "tid": 1, "ts": 9146510.7421875, "dur": 1021994.01855469, "ph": "X", "name": "Convert", "args": { "durationMS": 1021.99401855469, "detail": "Unity.ugui" } },
{ "pid": 1, "tid": 1, "ts": 9146513.671875, "dur": 1021990.96679688, "ph": "X", "name": "Code", "args": { "durationMS": 1021.99096679688, "detail": "" } },
{ "pid": 1, "tid": 1, "ts": 9146641.6015625, "dur": 1021861.99951172, "ph": "X", "name": "Methods", "args": { "durationMS": 1021.86199951172, "detail": "Definitions" } },
{ "pid": 1, "tid": 1, "ts": 10174075.1953125, "dur": 17934.0000152588, "ph": "X", "name": "Convert", "args": { "durationMS": 17.9340000152588, "detail": "UnityEngine.AudioModule" } },
{ "pid": 1, "tid": 1, "ts": 10174077.1484375, "dur": 17931.999206543, "ph": "X", "name": "Code", "args": { "durationMS": 17.931999206543, "detail": "" } },
{ "pid": 1, "tid": 1, "ts": 10174093.75, "dur": 17913.9995574951, "ph": "X", "name": "Methods", "args": { "durationMS": 17.9139995574951, "detail": "Definitions" } },
{ "pid": 1, "tid": 1, "ts": 10197098.6328125, "dur": 45964.0007019043, "ph": "X", "name": "Convert", "args": { "durationMS": 45.9640007019043, "detail": "UnityEngine.GameCenterModule" } },
{ "pid": 1, "tid": 1, "ts": 10197100.5859375, "dur": 45959.9990844727, "ph": "X", "name": "Code", "args": { "durationMS": 45.9599990844727, "detail": "" } },
{ "pid": 1, "tid": 1, "ts": 10197131.8359375, "dur": 45917.9992675781, "ph": "X", "name": "Methods", "args": { "durationMS": 45.9179992675781, "detail": "Definitions" } },
{ "pid": 1, "tid": 1, "ts": 10250659.1796875, "dur": 5810.99987030029, "ph": "X", "name": "Convert", "args": { "durationMS": 5.81099987030029, "detail": "UnityEngine.UnityAnalyticsModule" } },
{ "pid": 1, "tid": 1, "ts": 10250663.0859375, "dur": 5806.00023269653, "ph": "X", "name": "Code", "args": { "durationMS": 5.80600023269653, "detail": "" } },
{ "pid": 1, "tid": 1, "ts": 10250684.5703125, "dur": 5783.99991989136, "ph": "X", "name": "Methods", "args": { "durationMS": 5.78399991989136, "detail": "Definitions" } },
{ "pid": 1, "tid": 1, "ts": 10263367.1875, "dur": 3391.99995994568, "ph": "X", "name": "Convert", "args": { "durationMS": 3.39199995994568, "detail": "UnityEngine.UnityWebRequestModule" } },
{ "pid": 1, "tid": 1, "ts": 10263369.140625, "dur": 3390.00010490417, "ph": "X", "name": "Code", "args": { "durationMS": 3.39000010490417, "detail": "" } },
{ "pid": 1, "tid": 1, "ts": 10263380.859375, "dur": 3377.99978256226, "ph": "X", "name": "Methods", "args": { "durationMS": 3.37799978256226, "detail": "Definitions" } },
{ "pid": 1, "tid": 1, "ts": 10271868.1640625, "dur": 765.999972820282, "ph": "X", "name": "Convert", "args": { "durationMS": 0.765999972820282, "detail": "UnityEngine" } },
{ "pid": 1, "tid": 1, "ts": 10271870.1171875, "dur": 763.000011444092, "ph": "X", "name": "Code", "args": { "durationMS": 0.763000011444092, "detail": "" } },
{ "pid": 1, "tid": 1, "ts": 10271878.90625, "dur": 754.000008106232, "ph": "X", "name": "Methods", "args": { "durationMS": 0.754000008106232, "detail": "Definitions" } },
{ "pid": 1, "tid": 1, "ts": 10277911.1328125, "dur": 276309.997558594, "ph": "X", "name": "Convert", "args": { "durationMS": 276.309997558594, "detail": "Assembly-CSharp" } },
{ "pid": 1, "tid": 1, "ts": 10277914.0625, "dur": 276305.969238281, "ph": "X", "name": "Code", "args": { "durationMS": 276.305969238281, "detail": "" } },
{ "pid": 1, "tid": 1, "ts": 10277953.125, "dur": 276266.998291016, "ph": "X", "name": "Methods", "args": { "durationMS": 276.266998291016, "detail": "Definitions" } },
{ "pid": 1, "tid": 1, "ts": 10554232.421875, "dur": 2414609.86328125, "ph": "X", "name": "WriteGenerics", "args": { "durationMS": 2414.60986328125, "detail": "" } },
{ "pid": 1, "tid": 1, "ts": 10566097.65625, "dur": 18165.0009155273, "ph": "X", "name": "Arrays Definitions", "args": { "durationMS": 18.1650009155273, "detail": "" } },
{ "pid": 1, "tid": 1, "ts": 10584837.890625, "dur": 528937.98828125, "ph": "X", "name": "GenericInstanceMethods", "args": { "durationMS": 528.93798828125, "detail": "" } },
{ "pid": 1, "tid": 1, "ts": 11113776.3671875, "dur": 1523218.01757812, "ph": "X", "name": "GenericInstanceTypes", "args": { "durationMS": 1523.21801757812, "detail": "" } },
{ "pid": 1, "tid": 1, "ts": 12637488.28125, "dur": 331341.003417969, "ph": "X", "name": "GenericComDefinitions", "args": { "durationMS": 331.341003417969, "detail": "" } },
{ "pid": 1, "tid": 1, "ts": 12982201.171875, "dur": 403632.965087891, "ph": "X", "name": "MetadataCollector", "args": { "durationMS": 403.632965087891, "detail": "" } },
{ "pid": 1, "tid": 1, "ts": 12985211.9140625, "dur": 16222.9995727539, "ph": "X", "name": "UpdateEmptyTokens", "args": { "durationMS": 16.2229995727539, "detail": "" } },
{ "pid": 1, "tid": 1, "ts": 13004186.5234375, "dur": 14765.9997940063, "ph": "X", "name": "ValidateTokens", "args": { "durationMS": 14.7659997940063, "detail": "" } },
{ "pid": 1, "tid": 1, "ts": 13386280.2734375, "dur": 4810.99987030029, "ph": "X", "name": "Write COM Callable Wrappers", "args": { "durationMS": 4.81099987030029, "detail": "" } },
{ "pid": 1, "tid": 1, "ts": 13390163.0859375, "dur": 922.999978065491, "ph": "X", "name": "Collect implemented projected interfaces by COM Callable Wrappers", "args": { "durationMS": 0.922999978065491, "detail": "" } },
{ "pid": 1, "tid": 1, "ts": 13391092.7734375, "dur": 2214693.11523438, "ph": "X", "name": "Metadata", "args": { "durationMS": 2214.69311523438, "detail": "Global" } },
{ "pid": 1, "tid": 1, "ts": 13488315.4296875, "dur": 431424.987792969, "ph": "X", "name": "Attributes", "args": { "durationMS": 431.424987792969, "detail": "" } },
{ "pid": 1, "tid": 1, "ts": 14072598.6328125, "dur": 367361.968994141, "ph": "X", "name": "WriteCodeRegistration", "args": { "durationMS": 367.361968994141, "detail": "" } },
{ "pid": 1, "tid": 1, "ts": 14151164.0625, "dur": 9082.00073242188, "ph": "X", "name": "GenericContextCollector", "args": { "durationMS": 9.08200073242188, "detail": "Collect" } },
{ "pid": 1, "tid": 1, "ts": 14191288.0859375, "dur": 649.999976158142, "ph": "X", "name": "GenericContextCollector", "args": { "durationMS": 0.649999976158142, "detail": "Collect" } },
{ "pid": 1, "tid": 1, "ts": 14237781.25, "dur": 333.999991416931, "ph": "X", "name": "GenericContextCollector", "args": { "durationMS": 0.333999991416931, "detail": "Collect" } },
{ "pid": 1, "tid": 1, "ts": 14253560.546875, "dur": 3880.00011444092, "ph": "X", "name": "ReversePInvokerWrapperTable", "args": { "durationMS": 3.88000011444092, "detail": "Il2CppReversePInvokeWrapperTable.cpp" } },
{ "pid": 1, "tid": 1, "ts": 14258272.4609375, "dur": 71277.9998779297, "ph": "X", "name": "GenericMethodPointerTable", "args": { "durationMS": 71.2779998779297, "detail": "Il2CppGenericMethodPointerTable.cpp" } },
{ "pid": 1, "tid": 1, "ts": 14330008.7890625, "dur": 84150.0015258789, "ph": "X", "name": "InvokerTable", "args": { "durationMS": 84.1500015258789, "detail": "Il2CppInvokerTable.cpp" } },
{ "pid": 1, "tid": 1, "ts": 14415869.140625, "dur": 18523.0007171631, "ph": "X", "name": "InteropDataTable", "args": { "durationMS": 18.5230007171631, "detail": "Il2CppInteropDataTable.cpp" } },
{ "pid": 1, "tid": 1, "ts": 14439961.9140625, "dur": 1165822.87597656, "ph": "X", "name": "WriteMetadata", "args": { "durationMS": 1165.82287597656, "detail": "" } },
{ "pid": 1, "tid": 1, "ts": 14558879.8828125, "dur": 5480.99994659424, "ph": "X", "name": "Metadata", "args": { "durationMS": 5.48099994659424, "detail": "Collect string literals" } },
{ "pid": 1, "tid": 1, "ts": 14676529.296875, "dur": 67728.9962768555, "ph": "X", "name": "GenericClasses", "args": { "durationMS": 67.7289962768555, "detail": "" } },
{ "pid": 1, "tid": 1, "ts": 14744258.7890625, "dur": 25440.9999847412, "ph": "X", "name": "GenericInst2", "args": { "durationMS": 25.4409999847412, "detail": "" } },
{ "pid": 1, "tid": 1, "ts": 14769700.1953125, "dur": 212427.993774414, "ph": "X", "name": "GenericMethods", "args": { "durationMS": 212.427993774414, "detail": "" } },
{ "pid": 1, "tid": 1, "ts": 14982128.90625, "dur": 146724.990844727, "ph": "X", "name": "Il2CppTypes", "args": { "durationMS": 146.724990844727, "detail": "" } },
{ "pid": 1, "tid": 1, "ts": 15128854.4921875, "dur": 89413.0020141602, "ph": "X", "name": "GenericMethods", "args": { "durationMS": 89.4130020141602, "detail": "" } },
{ "pid": 1, "tid": 1, "ts": 15218268.5546875, "dur": 165535.003662109, "ph": "X", "name": "CompilerCalculateTypeValues", "args": { "durationMS": 165.535003662109, "detail": "" } },
{ "pid": 1, "tid": 1, "ts": 15383805.6640625, "dur": 4034.99984741211, "ph": "X", "name": "Registration", "args": { "durationMS": 4.03499984741211, "detail": "" } },
{ "pid": 1, "tid": 1, "ts": 15388048.828125, "dur": 7610.999584198, "ph": "X", "name": "StringLiteralWriter", "args": { "durationMS": 7.610999584198, "detail": "" } },
{ "pid": 1, "tid": 1, "ts": 15396067.3828125, "dur": 2172.9998588562, "ph": "X", "name": "Metadata Strings", "args": { "durationMS": 2.1729998588562, "detail": "" } },
{ "pid": 1, "tid": 1, "ts": 15398244.140625, "dur": 5138.00001144409, "ph": "X", "name": "Events", "args": { "durationMS": 5.13800001144409, "detail": "" } },
{ "pid": 1, "tid": 1, "ts": 15403382.8125, "dur": 4858.99972915649, "ph": "X", "name": "Properties", "args": { "durationMS": 4.85899972915649, "detail": "" } },
{ "pid": 1, "tid": 1, "ts": 15408242.1875, "dur": 77424.0036010742, "ph": "X", "name": "Methods", "args": { "durationMS": 77.4240036010742, "detail": "" } },
{ "pid": 1, "tid": 1, "ts": 15485668.9453125, "dur": 1255.00011444092, "ph": "X", "name": "Parameter Default Values", "args": { "durationMS": 1.25500011444092, "detail": "" } },
{ "pid": 1, "tid": 1, "ts": 15486922.8515625, "dur": 1779.00004386902, "ph": "X", "name": "Field Default Values", "args": { "durationMS": 1.77900004386902, "detail": "" } },
{ "pid": 1, "tid": 1, "ts": 15488704.1015625, "dur": 508.000016212463, "ph": "X", "name": "Field and Parameter Default Values Data", "args": { "durationMS": 0.508000016212463, "detail": "" } },
{ "pid": 1, "tid": 1, "ts": 15489210.9375, "dur": 1036.99994087219, "ph": "X", "name": "Field Marshaled Sizes", "args": { "durationMS": 1.03699994087219, "detail": "" } },
{ "pid": 1, "tid": 1, "ts": 15490248.046875, "dur": 17595.0012207031, "ph": "X", "name": "Parameters", "args": { "durationMS": 17.5950012207031, "detail": "" } },
{ "pid": 1, "tid": 1, "ts": 15507845.703125, "dur": 8463.00029754639, "ph": "X", "name": "Fields", "args": { "durationMS": 8.46300029754639, "detail": "" } },
{ "pid": 1, "tid": 1, "ts": 15516309.5703125, "dur": 1855.99994659424, "ph": "X", "name": "Generic Parameters", "args": { "durationMS": 1.85599994659424, "detail": "" } },
{ "pid": 1, "tid": 1, "ts": 15518166.015625, "dur": 1339.00010585785, "ph": "X", "name": "Generic Parameter Constraints", "args": { "durationMS": 1.33900010585785, "detail": "" } },
{ "pid": 1, "tid": 1, "ts": 15519506.8359375, "dur": 1819.00000572205, "ph": "X", "name": "Generic Containers", "args": { "durationMS": 1.81900000572205, "detail": "" } },
{ "pid": 1, "tid": 1, "ts": 15521325.1953125, "dur": 708.000004291534, "ph": "X", "name": "Nested Types", "args": { "durationMS": 0.708000004291534, "detail": "" } },
{ "pid": 1, "tid": 1, "ts": 15522034.1796875, "dur": 542.999982833862, "ph": "X", "name": "Interfaces", "args": { "durationMS": 0.542999982833862, "detail": "" } },
{ "pid": 1, "tid": 1, "ts": 15522578.125, "dur": 1751.00004673004, "ph": "X", "name": "VTables", "args": { "durationMS": 1.75100004673004, "detail": "" } },
{ "pid": 1, "tid": 1, "ts": 15524330.078125, "dur": 2769.00005340576, "ph": "X", "name": "Interface Offsets", "args": { "durationMS": 2.76900005340576, "detail": "" } },
{ "pid": 1, "tid": 1, "ts": 15527101.5625, "dur": 54555.0003051758, "ph": "X", "name": "Type Definitions", "args": { "durationMS": 54.5550003051758, "detail": "" } },
{ "pid": 1, "tid": 1, "ts": 15581657.2265625, "dur": 5811.99979782104, "ph": "X", "name": "Images", "args": { "durationMS": 5.81199979782104, "detail": "" } },
{ "pid": 1, "tid": 1, "ts": 15587469.7265625, "dur": 2540.99988937378, "ph": "X", "name": "Assemblies", "args": { "durationMS": 2.54099988937378, "detail": "" } },
{ "pid": 1, "tid": 1, "ts": 15590011.71875, "dur": 764.999985694885, "ph": "X", "name": "Metadata Usage Lists", "args": { "durationMS": 0.764999985694885, "detail": "" } },
{ "pid": 1, "tid": 1, "ts": 15590777.34375, "dur": 1901.99995040894, "ph": "X", "name": "Metadata Usage Pairs", "args": { "durationMS": 1.90199995040894, "detail": "" } },
{ "pid": 1, "tid": 1, "ts": 15592682.6171875, "dur": 474.999994039536, "ph": "X", "name": "Field Refs", "args": { "durationMS": 0.474999994039536, "detail": "" } },
{ "pid": 1, "tid": 1, "ts": 15593159.1796875, "dur": 927.999973297119, "ph": "X", "name": "Referenced Assemblies", "args": { "durationMS": 0.927999973297119, "detail": "" } },
{ "pid": 1, "tid": 1, "ts": 15594088.8671875, "dur": 2183.00008773804, "ph": "X", "name": "Attribute Types Ranges", "args": { "durationMS": 2.18300008773804, "detail": "" } },
{ "pid": 1, "tid": 1, "ts": 15596271.484375, "dur": 2471.99988365173, "ph": "X", "name": "Attribute Types", "args": { "durationMS": 2.47199988365173, "detail": "" } },
{ "pid": 1, "tid": 1, "ts": 15598748.046875, "dur": 709.999978542328, "ph": "X", "name": "Unresolved Virtual Call Parameter Types", "args": { "durationMS": 0.709999978542328, "detail": "" } },
{ "pid": 1, "tid": 1, "ts": 15599458.984375, "dur": 1425.99999904633, "ph": "X", "name": "Unresolved Virtual Call Parameter Ranges", "args": { "durationMS": 1.42599999904633, "detail": "" } },
{ "pid": 1, "tid": 1, "ts": 15600884.765625, "dur": 748.000025749207, "ph": "X", "name": "Windows Runtime type names", "args": { "durationMS": 0.748000025749207, "detail": "" } },
{ "pid": 1, "tid": 1, "ts": 15601633.7890625, "dur": 2375.99992752075, "ph": "X", "name": "Exported Types", "args": { "durationMS": 2.37599992752075, "detail": "" } }
],
"meta_datetime": "06/11/2019 13:51:01",
"meta_command_line_args": "/Applications/Unity/Hub/Editor/2019.3.0a4/Unity.app/Contents/il2cpp/build/il2cppcore/il2cppcore.dll --convert-to-cpp --emit-null-checks --enable-array-bounds-check --dotnetprofile=unityaot --profiler-report --map-file-parser=/Applications/Unity/Hub/Editor/2019.3.0a4/Unity.app/Contents/Tools/MapFileParser/MapFileParser --directory=/Users/markusk/Documents/PCH/2019/HandTrack/Unity/manoTut1/v4/ManoMotion_v4/Temp/StagingArea/Data/Managed --generatedcppdir=/Users/markusk/Documents/PCH/2019/HandTrack/Unity/manoTut1/v4/ManoMotion_v4/Temp/il2cppOutput/il2cppOutput",
"meta_cpu_count": "8"}
